{
    "variants": {
        "normal": [
			{ "model": "dark_oak_planks", "weight": 1},
			{ "model": "dark_oak_planks2", "weight": 1},
			{ "model": "dark_oak_planks3", "weight": 1},
			{ "model": "dark_oak_planks4", "weight": 1}
		]
    }
}
