{
    "variants": {
        "normal": [
			{ "model": "oak_planks", "weight": 2},
			{ "model": "oak_planks2", "weight": 2},
			{ "model": "oak_planks3", "weight": 1},
			{ "model": "oak_planks4", "weight": 2}
		]
    }
}
